{
	"costElement": "12034",
	"companyCode": "0444",
	"ownerEmail": [ "kalmykov.g@tengizchevroil.com" ],
	"application": {
		"name": "STARS-TCO",
		"shortName": "starsarchive",
		"serviceId": "14736",
		"artifactPath": "Jenkins-TCO/Stars-ARCHIVE",
		"securityRating": "Tier 3"
	},
	"baseUrl": "starsarchive",
	"environments": {
		"prod": {
			"dnsDomain": "tengizchevroil.com",
      "azure": {
        "subscription": "745f1a90-6800-4ccd-9c09-729bb4ba0ed5",
        "defaultRegion": "westeurope",
        "resourceGroup": "starsarchive-p10kz-20190415",
        "vaultName": "starsarchive-p10kz-cvx",
        "appId": "9dac669e-35dc-4fa6-92b0-6ef2ebf41f85",
        "clientSecretName": "kvenc:app-secret",
        "provisioningGroup": "cloud-provisioning-azure"
      }
		},
		"stage": {
			"dnsDomain": "tengizchevroil.com",
      "azure": {
        "subscription": "745f1a90-6800-4ccd-9c09-729bb4ba0ed5",
        "defaultRegion": "westeurope",
        "resourceGroup": "starsarchive-p10kz-20190415",
        "vaultName": "starsarchive-p10kz-cvx",
        "appId": "9dac669e-35dc-4fa6-92b0-6ef2ebf41f85",
        "clientSecretName": "kvenc:app-secret",
        "provisioningGroup": "cloud-provisioning-azure"
      }
		},
		"test": {
			"dnsDomain": "tengizchevroil.com",
      "azure": {
        "subscription": "6a22d39a-799d-4ec2-a063-1f83b0bb2ea3",
        "defaultRegion": "westeurope",
        "resourceGroup": "starsarchive-t10kz-20190415",
        "vaultName": "starsarchive-t10kz-cvx",
        "appId": "20729944-6f27-4c60-9f99-8918606a9f01",
        "clientSecretName": "kvenc:app-secret",
        "provisioningGroup": "cloud-provisioning-azure"
      }
		},
		"dev": {
			"dnsDomain": "tengizchevroil.com",
      "azure": {
        "subscription": "6a22d39a-799d-4ec2-a063-1f83b0bb2ea3",
        "defaultRegion": "westeurope",
        "resourceGroup": "starsarchive-t10kz-20190415",
        "vaultName": "starsarchive-t10kz-cvx",
        "appId": "20729944-6f27-4c60-9f99-8918606a9f01",
        "clientSecretName": "kvenc:app-secret",
        "provisioningGroup": "cloud-provisioning-azure"
      }
		}
	}
}